ElaboratoFinale
…
Unisco dati relativi allo score allindice

# Indice$ScaleIndice <- scale(Indice$returns)
df_ScoreNew <-  Indice %>%
  inner_join(Sentiment_ScoreNew) %>%
  select(date,vola,Smooth)

## Joining, by = "date"

colnames(df_ScoreNew) <- c("date","Indice","Sentiment")
df_ScoreNew <- df_ScoreNew[!is.na(df_ScoreNew$Indice), ]
df_ScoreNew

## # A tibble: 40 x 3
##    date       Indice Sentiment
##    <date>      <dbl>     <dbl>
##  1 2020-08-07  0.196    0.0336
##  2 2020-08-10  0.174    0.0716
##  3 2020-08-11  0.177    0.137 
##  4 2020-08-12  0.173    0.120 
##  5 2020-08-13  0.139   -0.147 
##  6 2020-08-14  0.144   -0.292 
##  7 2020-08-17  0.147   -0.366 
##  8 2020-08-18  0.166   -0.257 
##  9 2020-08-19  0.171   -0.176 
## 10 2020-08-20  0.172   -0.115 
## # ... with 30 more rows
…
